…
annotate_text(text_body = my_text)
#> $sentences
#> Source: local data frame [2 x 4]
#> Groups: <by row>
#> 
#> # A tibble: 2 × 4
#>                                                                        content
#>                                                                          <chr>
#> 1 Google, headquartered in Mountain View, unveiled the\n            new Androi
#> 2 Sundar Pichai said in his keynote that users love\n            their new And
#> # ... with 3 more variables: beginOffset <int>, magnitude <dbl>,
#> #   score <dbl>
#> 
#> $tokens
#> # A tibble: 32 × 17
#>          content beginOffset       lemma   tag         aspect         case
#>            <chr>       <int>       <chr> <chr>          <chr>        <chr>
#> 1         Google           0      Google  NOUN ASPECT_UNKNOWN CASE_UNKNOWN
#> 2              ,           6           , PUNCT ASPECT_UNKNOWN CASE_UNKNOWN
#> 3  headquartered           8 headquarter  VERB ASPECT_UNKNOWN CASE_UNKNOWN
#> 4             in          22          in   ADP ASPECT_UNKNOWN CASE_UNKNOWN
#> 5       Mountain          25    Mountain  NOUN ASPECT_UNKNOWN CASE_UNKNOWN
#> 6           View          34        View  NOUN ASPECT_UNKNOWN CASE_UNKNOWN
#> 7              ,          38           , PUNCT ASPECT_UNKNOWN CASE_UNKNOWN
#> 8       unveiled          40      unveil  VERB ASPECT_UNKNOWN CASE_UNKNOWN
#> 9            the          49         the   DET ASPECT_UNKNOWN CASE_UNKNOWN
#> 10           new          65         new   ADJ ASPECT_UNKNOWN CASE_UNKNOWN
#> # ... with 22 more rows, and 11 more variables: form <chr>, gender <chr>,
#> #   mood <chr>, number <chr>, person <chr>, proper <chr>,
#> #   reciprocity <chr>, tense <chr>, voice <chr>,
#> #   dependencyEdge_headTokenIndex <int>, dependencyEdge_label <chr>
…
